\relax 
\providecommand\hyper@newdestlabel[2]{}
\providecommand\HyperFirstAtBeginDocument{\AtBeginDocument}
\HyperFirstAtBeginDocument{\ifx\hyper@anchor\@undefined
\global\let\oldcontentsline\contentsline
\gdef\contentsline#1#2#3#4{\oldcontentsline{#1}{#2}{#3}}
\global\let\oldnewlabel\newlabel
\gdef\newlabel#1#2{\newlabelxx{#1}#2}
\gdef\newlabelxx#1#2#3#4#5#6{\oldnewlabel{#1}{{#2}{#3}}}
\AtEndDocument{\ifx\hyper@anchor\@undefined
\let\contentsline\oldcontentsline
\let\newlabel\oldnewlabel
\fi}
\fi}
\global\let\hyper@last\relax 
\gdef\HyperFirstAtBeginDocument#1{#1}
\providecommand*\HyPL@Entry[1]{}
\HyPL@Entry{0<</S/D>>}
\babel@aux{french}{}
\@writefile{toc}{\contentsline {chapter}{\numberline {1}Prologue}{2}{chapter.1}}
\@writefile{lof}{\addvspace {10\p@ }}
\@writefile{lot}{\addvspace {10\p@ }}
\newlabel{prologue}{{1}{2}{Prologue}{chapter.1}{}}
\@writefile{toc}{\contentsline {chapter}{\numberline {2}I ~}{5}{chapter.2}}
\@writefile{lof}{\addvspace {10\p@ }}
\@writefile{lot}{\addvspace {10\p@ }}
\newlabel{i}{{2}{5}{I ~}{chapter.2}{}}
\@writefile{toc}{\contentsline {chapter}{\numberline {3}II}{9}{chapter.3}}
\@writefile{lof}{\addvspace {10\p@ }}
\@writefile{lot}{\addvspace {10\p@ }}
\newlabel{ii}{{3}{9}{II}{chapter.3}{}}
\@writefile{toc}{\contentsline {chapter}{\numberline {4}III}{12}{chapter.4}}
\@writefile{lof}{\addvspace {10\p@ }}
\@writefile{lot}{\addvspace {10\p@ }}
\newlabel{iii}{{4}{12}{III}{chapter.4}{}}
\@writefile{toc}{\contentsline {chapter}{\numberline {5}IV}{15}{chapter.5}}
\@writefile{lof}{\addvspace {10\p@ }}
\@writefile{lot}{\addvspace {10\p@ }}
\newlabel{iv}{{5}{15}{IV}{chapter.5}{}}
\@writefile{toc}{\contentsline {chapter}{\numberline {6}V~}{25}{chapter.6}}
\@writefile{lof}{\addvspace {10\p@ }}
\@writefile{lot}{\addvspace {10\p@ }}
\newlabel{v}{{6}{25}{V~}{chapter.6}{}}
\@writefile{toc}{\contentsline {chapter}{\numberline {7}VI~}{28}{chapter.7}}
\@writefile{lof}{\addvspace {10\p@ }}
\@writefile{lot}{\addvspace {10\p@ }}
\newlabel{vi}{{7}{28}{VI~}{chapter.7}{}}
\@writefile{toc}{\contentsline {chapter}{\numberline {8}VII}{32}{chapter.8}}
\@writefile{lof}{\addvspace {10\p@ }}
\@writefile{lot}{\addvspace {10\p@ }}
\newlabel{vii}{{8}{32}{VII}{chapter.8}{}}
\@writefile{toc}{\contentsline {chapter}{\numberline {9}VIII~}{41}{chapter.9}}
\@writefile{lof}{\addvspace {10\p@ }}
\@writefile{lot}{\addvspace {10\p@ }}
\newlabel{viii}{{9}{41}{VIII~}{chapter.9}{}}
\@writefile{toc}{\contentsline {chapter}{\numberline {10}IX~}{46}{chapter.10}}
\@writefile{lof}{\addvspace {10\p@ }}
\@writefile{lot}{\addvspace {10\p@ }}
\newlabel{ix}{{10}{46}{IX~}{chapter.10}{}}
\@writefile{toc}{\contentsline {chapter}{\numberline {11}X}{55}{chapter.11}}
\@writefile{lof}{\addvspace {10\p@ }}
\@writefile{lot}{\addvspace {10\p@ }}
\newlabel{x}{{11}{55}{X}{chapter.11}{}}
\@writefile{toc}{\contentsline {chapter}{\numberline {12}XI}{60}{chapter.12}}
\@writefile{lof}{\addvspace {10\p@ }}
\@writefile{lot}{\addvspace {10\p@ }}
\newlabel{xi}{{12}{60}{XI}{chapter.12}{}}
\@writefile{toc}{\contentsline {chapter}{\numberline {13}XII~}{64}{chapter.13}}
\@writefile{lof}{\addvspace {10\p@ }}
\@writefile{lot}{\addvspace {10\p@ }}
\newlabel{xii}{{13}{64}{XII~}{chapter.13}{}}
\@writefile{toc}{\contentsline {chapter}{\numberline {14}XIII~}{68}{chapter.14}}
\@writefile{lof}{\addvspace {10\p@ }}
\@writefile{lot}{\addvspace {10\p@ }}
\newlabel{xiii}{{14}{68}{XIII~}{chapter.14}{}}
\@writefile{toc}{\contentsline {chapter}{\numberline {15}XIV~}{72}{chapter.15}}
\@writefile{lof}{\addvspace {10\p@ }}
\@writefile{lot}{\addvspace {10\p@ }}
\newlabel{xiv}{{15}{72}{XIV~}{chapter.15}{}}
\@writefile{toc}{\contentsline {chapter}{\numberline {16}XV~}{75}{chapter.16}}
\@writefile{lof}{\addvspace {10\p@ }}
\@writefile{lot}{\addvspace {10\p@ }}
\newlabel{xv}{{16}{75}{XV~}{chapter.16}{}}
\@writefile{toc}{\contentsline {chapter}{\numberline {17}XVI~}{80}{chapter.17}}
\@writefile{lof}{\addvspace {10\p@ }}
\@writefile{lot}{\addvspace {10\p@ }}
\newlabel{xvi}{{17}{80}{XVI~}{chapter.17}{}}
\@writefile{toc}{\contentsline {chapter}{\numberline {18}XVII~}{89}{chapter.18}}
\@writefile{lof}{\addvspace {10\p@ }}
\@writefile{lot}{\addvspace {10\p@ }}
\newlabel{xvii}{{18}{89}{XVII~}{chapter.18}{}}
\@writefile{toc}{\contentsline {chapter}{\numberline {19}XVIII~}{95}{chapter.19}}
\@writefile{lof}{\addvspace {10\p@ }}
\@writefile{lot}{\addvspace {10\p@ }}
\newlabel{xviii}{{19}{95}{XVIII~}{chapter.19}{}}
\@writefile{toc}{\contentsline {chapter}{\numberline {20}XIX~}{99}{chapter.20}}
\@writefile{lof}{\addvspace {10\p@ }}
\@writefile{lot}{\addvspace {10\p@ }}
\newlabel{xix}{{20}{99}{XIX~}{chapter.20}{}}
\@writefile{toc}{\contentsline {chapter}{\numberline {21}XX~}{102}{chapter.21}}
\@writefile{lof}{\addvspace {10\p@ }}
\@writefile{lot}{\addvspace {10\p@ }}
\newlabel{xx}{{21}{102}{XX~}{chapter.21}{}}
\@writefile{toc}{\contentsline {chapter}{\numberline {22}XXI~}{107}{chapter.22}}
\@writefile{lof}{\addvspace {10\p@ }}
\@writefile{lot}{\addvspace {10\p@ }}
\newlabel{xxi}{{22}{107}{XXI~}{chapter.22}{}}
\@writefile{toc}{\contentsline {chapter}{\numberline {23}XXII}{113}{chapter.23}}
\@writefile{lof}{\addvspace {10\p@ }}
\@writefile{lot}{\addvspace {10\p@ }}
\newlabel{xxii}{{23}{113}{XXII}{chapter.23}{}}
\ttl@finishall
