\babel@toc {french}{}
\contentsline {chapter}{\numberline {1}Prologue}{2}{chapter.1}
\contentsline {chapter}{\numberline {2}I ~}{5}{chapter.2}
\contentsline {chapter}{\numberline {3}II}{9}{chapter.3}
\contentsline {chapter}{\numberline {4}III}{12}{chapter.4}
\contentsline {chapter}{\numberline {5}IV}{15}{chapter.5}
\contentsline {chapter}{\numberline {6}V~}{25}{chapter.6}
\contentsline {chapter}{\numberline {7}VI~}{28}{chapter.7}
\contentsline {chapter}{\numberline {8}VII}{32}{chapter.8}
\contentsline {chapter}{\numberline {9}VIII~}{41}{chapter.9}
\contentsline {chapter}{\numberline {10}IX~}{46}{chapter.10}
\contentsline {chapter}{\numberline {11}X}{55}{chapter.11}
\contentsline {chapter}{\numberline {12}XI}{60}{chapter.12}
\contentsline {chapter}{\numberline {13}XII~}{64}{chapter.13}
\contentsline {chapter}{\numberline {14}XIII~}{68}{chapter.14}
\contentsline {chapter}{\numberline {15}XIV~}{72}{chapter.15}
\contentsline {chapter}{\numberline {16}XV~}{75}{chapter.16}
\contentsline {chapter}{\numberline {17}XVI~}{80}{chapter.17}
\contentsline {chapter}{\numberline {18}XVII~}{89}{chapter.18}
\contentsline {chapter}{\numberline {19}XVIII~}{95}{chapter.19}
\contentsline {chapter}{\numberline {20}XIX~}{99}{chapter.20}
\contentsline {chapter}{\numberline {21}XX~}{102}{chapter.21}
\contentsline {chapter}{\numberline {22}XXI~}{107}{chapter.22}
\contentsline {chapter}{\numberline {23}XXII}{113}{chapter.23}
\contentsfinish 
